{"count":50,"next":"http://127.0.0.1:8000/api/articles/?page=2","previous":null,"results":[{"id":100,"title":"Article 50","content":"This is the content of article 50","author":"user50","created_at":"2025-09-01T16:51:34.717779Z","is_published":true},{"id":96,"title":"Article 46","content":"This is the content of article 46","author":"user46","created_at":"2025-09-01T16:51:34.632217Z","is_published":true},{"id":94,"title":"Article 44","content":"This is the content of article 44","author":"user44","created_at":"2025-09-01T16:51:34.604782Z","is_published":true},{"id":93,"title":"Article 43","content":"This is the content of article 43","author":"user43","created_at":"2025-09-01T16:51:34.589680Z","is_published":true},{"id":91,"title":"Article 41","content":"This is the content of article 41","author":"user41","created_at":"2025-09-01T16:51:34.563801Z","is_published":true},{"id":90,"title":"Article 40","content":"This is the content of article 40","author":"user40","created_at":"2025-09-01T16:51:34.551207Z","is_published":true},{"id":88,"title":"Article 38","content":"This is the content of article 38","author":"user38","created_at":"2025-09-01T16:51:34.525077Z","is_published":true},{"id":87,"title":"Article 37","content":"This is the content of article 37","author":"user37","created_at":"2025-09-01T16:51:34.512453Z","is_published":true},{"id":86,"title":"Article 36","content":"This is the content of article 36","author":"user36","created_at":"2025-09-01T16:51:34.495511Z","is_published":true},{"id":85,"title":"Article 35","content":"This is the content of article 35","author":"user35","created_at":"2025-09-01T16:51:34.480910Z","is_published":true}]}